{
  "title": "Today I Learned - Rocky Kev",
  "url": "https://til.heyitsrocky.com/",
  "language": "en",
  "description": "Oh the things I learned. But today. And in written form. Built in Eleventy.",
  "feed": {
    "subtitle": "Oh the things I learned. But today. And in written form.",
    "filename": "feed.xml",
    "path": "/feed/feed.xml",
    "id": "https://til.heyitsrocky.com/"
  },
  "jsonfeed": {
    "path": "/feed/feed.json",
    "url": "https://til.heyitsrocky.com/feed/feed.json"
  },
  "author": {
    "name": "Rocky Kev",
    "email": "rocky@heyitsrocky.com",
    "url": "https://til.heyitsrocky.com/about-me/"
  }
}

